…
<img src="{{< blogdown/postref >}}index.en_files/figure-html/unnamed-chunk-4-2.png" width="672" />

Artwork

artwork %>%
  mutate(artist=fct_lump_n(artist,20)) %>%
  count(artist, sort=TRUE) 

## # A tibble: 21 x 2
##    artist                             n
##    <fct>                          <int>
##  1 Turner, Joseph Mallord William 39389
##  2 Other                          23410
##  3 Jones, George                   1046
##  4 Moore, Henry, OM, CH             623
##  5 Daniell, William                 612
##  6 Beuys, Joseph                    578
##  7 British (?) School               388
##  8 Paolozzi, Sir Eduardo            385
##  9 Flaxman, John                    287
## 10 Phillips, Esq Tom                274
## # ... with 11 more rows
…
